Categories:System
License:Apache-2.0
Web Site:https://github.com/farmerbb/Taskbar/blob/HEAD/README.md
Source Code:https://github.com/farmerbb/Taskbar
Issue Tracker:https://github.com/farmerbb/Taskbar/issues

Auto Name:Taskbar
Summary:Use a start menu to access apps
Description:
Puts a start menu and recent apps tray on top of your screen accessible at any
time, increasing your productivity and turning your Android tablet or phone into
a real multitasking machine.
.

Repo Type:git
Repo:https://github.com/farmerbb/Taskbar

Build:1.1.8,54
    commit=b3131f37ac75814fffb1295434fca8e9c1e0aacd
    subdir=app
    gradle=yes

Build:1.1.9,56
    commit=d344934231bdd0587474a3249aca5302db8708ea
    subdir=app
    gradle=yes

Build:1.1.9,57
    commit=055730f44f68824fba0bd10a6eb2f916476ebe7f
    subdir=app
    gradle=yes

Build:1.1.10,61
    commit=cd7ffd8c6193d2ab3c0a8a2dd032a33437793867
    subdir=app
    gradle=yes

Build:1.1.10,65
    commit=e276f1c1a196c2a06fb1bc13a60469428bfa6294
    subdir=app
    gradle=yes

Build:1.1.10,67
    commit=8583d5a605544b536de1a1e47682c4be335a0e50
    subdir=app
    gradle=yes

Build:1.2,68
    commit=0b5b23a7016d7826e62f3ee5fb28331f0e6459a1
    subdir=app
    gradle=free

Build:1.2.1,72
    commit=189cdd7226cb2cf83f88a7cea79a4476546f7405
    subdir=app
    gradle=free

Build:2.0,75
    commit=08e175e2cf01fb03d1f5a48afb23204110c2c37c
    subdir=app
    gradle=free

Build:2.0,76
    commit=7be39e31967f876a8dc79bb6f0b5d265e630b35f
    subdir=app
    gradle=free

Build:2.0.1,78
    commit=832392944ea7c9b72e3d19cd333f7ffcca40d416
    subdir=app
    gradle=free

Build:2.0.2,80
    commit=411837b6130a6d1cb10e3bd596890c609f880f62
    subdir=app
    gradle=free

Build:2.0.3,82
    commit=bd68d19abc4e0f27b216be209941efd881886d2e
    subdir=app
    gradle=free

Build:2.0.3,84
    commit=c2cd2863137ad6a36d634fc6890e8b59f71fbeb4
    subdir=app
    gradle=free

Build:2.0.4,86
    commit=dd1ab4204165ecf6dcc47dbec94805689d869fbb
    subdir=app
    gradle=free

Build:2.1,89
    commit=64b2e87d6f4a924eaf66bbfd5d7f07a89469d26e
    subdir=app
    gradle=free

Build:2.1,90
    commit=6c8ef0d6617e93d711859c51003ace1755fc2437
    subdir=app
    gradle=free

Build:2.1.1,91
    commit=f77e98d1210043ba8823341cc80b0bcce7540625
    subdir=app
    gradle=free

Build:2.1.2,92
    commit=b7cb1f4c609b887d3b4c0e24652f6ffc2ed2f73d
    subdir=app
    gradle=free

Build:2.1.2,95
    commit=e05c185d7038d07ddb6ca0625ae86534e82b57b2
    subdir=app
    gradle=free

Build:2.1.3,98
    commit=c80bdb245002323e57d9d4e3edd609efa6406213
    subdir=app
    gradle=free

Build:2.1.3,99
    commit=ebcb3cfedc35c1b397b3d6587bb0ac3206c50c5e
    subdir=app
    gradle=free

Build:2.1.4,100
    commit=82a2130ebbfad4bbf2af97d81eb7de775e71b5ba
    subdir=app
    gradle=free

Build:2.1.5,101
    commit=eef29a972b92af2a5f843845ff11972062b854bd
    subdir=app
    gradle=free

Build:3.0,103
    commit=75beadfbb5c6046504844fc8815ab5b2d3892c33
    subdir=app
    gradle=free

Build:3.0.1,104
    commit=c333ee55216b85d8b457748a4bc63b53bcc82053
    subdir=app
    gradle=free

Auto Update Mode:None
Update Check Mode:RepoManifest
Current Version:3.0.1
Current Version Code:104
